<?xml version="1.0" standalone="no"?>
<!DOCTYPE svg PUBLIC "-//W3C//DTD SVG 20010904//EN"
 "http://www.w3.org/TR/2001/REC-SVG-20010904/DTD/svg10.dtd">
<svg version="1.0" xmlns="http://www.w3.org/2000/svg"
 width="512.000000pt" height="512.000000pt" viewBox="0 0 512.000000 512.000000"
 preserveAspectRatio="xMidYMid meet">

<g transform="translate(0.000000,512.000000) scale(0.100000,-0.100000)"
fill="#000000" stroke="none">
<path d="M1135 5108 c-110 -39 -171 -149 -146 -264 11 -47 22 -66 62 -106 26
-26 55 -48 64 -48 13 0 15 -17 15 -105 0 -99 2 -107 25 -130 l24 -25 351 0
350 0 0 -75 0 -75 -847 0 c-832 0 -849 -1 -893 -21 -60 -27 -88 -54 -116 -114
l-24 -50 0 -1490 c0 -1478 1 -1490 21 -1535 25 -56 53 -86 104 -113 40 -22 44
-22 886 -27 l846 -5 -14 -69 c-26 -128 -108 -273 -207 -364 l-46 -42 -184 0
c-182 0 -184 0 -237 -28 -34 -17 -65 -44 -84 -71 -28 -39 -30 -50 -30 -126 0
-76 2 -87 30 -126 19 -27 50 -54 84 -71 l53 -28 1337 0 1337 0 55 28 c35 18
64 42 84 70 27 40 30 51 30 127 0 76 -3 87 -30 127 -20 28 -49 52 -84 71 -54
27 -58 27 -238 27 l-183 0 -46 42 c-99 91 -181 236 -207 364 l-14 69 846 5
c842 5 846 5 886 27 51 27 79 57 104 113 20 45 21 57 21 1535 0 1478 -1 1490
-21 1535 -27 60 -54 88 -114 116 l-50 24 -561 0 c-550 0 -561 0 -582 -20 -30
-28 -30 -82 0 -110 21 -20 32 -20 575 -20 l554 0 24 -25 25 -24 0 -1476 0
-1476 -25 -24 -24 -25 -2361 0 -2361 0 -24 25 -25 24 0 1476 0 1476 25 24 24
25 841 0 840 0 0 -75 0 -75 -765 0 -766 0 -24 -25 -25 -24 0 -1014 c0 -1011 0
-1014 21 -1041 28 -36 80 -36 108 0 21 27 21 31 21 990 l0 964 715 0 715 0 0
-201 0 -200 -174 -84 c-171 -82 -175 -84 -185 -122 -16 -56 -14 -1217 2 -1262
12 -34 28 -42 511 -273 274 -131 511 -238 526 -238 15 0 83 26 151 59 346 164
443 213 455 229 29 38 12 94 -34 110 -34 12 -60 1 -324 -126 l-168 -81 0 528
0 528 392 188 c216 103 398 189 405 192 11 4 13 -92 13 -521 l0 -526 -59 -30
c-90 -45 -110 -83 -70 -134 30 -38 70 -34 177 18 84 41 91 48 101 83 15 53 15
1204 0 1256 -10 38 -14 40 -185 122 l-174 84 0 201 0 200 715 0 715 0 0 -1225
0 -1225 -2110 0 -2110 0 0 125 c0 120 -1 127 -25 150 -31 32 -69 32 -100 0
-25 -24 -25 -27 -25 -200 0 -173 0 -176 25 -200 l24 -25 2211 0 2211 0 24 25
25 24 0 1326 0 1326 -25 24 -24 25 -766 0 -765 0 0 75 0 75 153 0 c140 0 155
2 175 20 14 14 22 33 22 55 0 22 -8 41 -22 55 -20 18 -35 20 -175 20 l-153 0
0 75 0 75 350 0 351 0 24 25 c23 23 25 31 25 130 0 78 3 105 13 105 23 0 87
61 109 103 30 57 30 147 0 204 -68 131 -236 163 -344 65 -70 -63 -93 -143 -67
-235 12 -43 68 -111 111 -133 25 -13 28 -20 28 -64 l0 -50 -350 0 -351 0 -24
-25 c-24 -23 -25 -30 -25 -150 l0 -125 -225 0 -225 0 1 203 0 202 47 30 c68
44 94 100 90 192 -4 92 -38 145 -117 186 -73 36 -131 36 -202 -1 -80 -41 -113
-94 -117 -185 -4 -92 22 -148 90 -192 l47 -30 0 -202 1 -203 -225 0 -225 0 0
125 c0 120 -1 127 -25 150 l-24 25 -351 0 -350 0 0 50 c0 44 3 51 28 64 72 37
122 124 122 211 -1 141 -160 250 -295 203z m120 -163 c14 -13 25 -36 25 -50 0
-33 -42 -75 -75 -75 -33 0 -75 42 -75 75 0 33 42 75 75 75 14 0 37 -11 50 -25z
m1353 5 c47 -44 15 -130 -48 -130 -38 0 -70 34 -70 75 0 41 32 75 70 75 14 0
36 -9 48 -20z m1357 -5 c14 -13 25 -36 25 -50 0 -14 -11 -37 -25 -50 -13 -14
-36 -25 -50 -25 -14 0 -37 11 -50 25 -14 13 -25 36 -25 50 0 14 11 37 25 50
13 14 36 25 50 25 14 0 37 -11 50 -25z m-1485 -890 l0 -75 -225 0 -225 0 0 75
0 75 225 0 225 0 0 -75z m610 0 l0 -75 -225 0 -225 0 0 75 0 75 225 0 225 0 0
-75z m-610 -283 l0 -59 -107 -50 c-60 -28 -161 -76 -225 -106 l-118 -56 0 164
0 165 225 0 225 0 0 -58z m610 -107 l0 -164 -157 75 c-87 42 -188 89 -225 106
l-68 31 0 58 0 59 225 0 225 0 0 -165z m-135 -266 c209 -100 383 -185 388
-188 6 -6 -682 -343 -763 -373 -22 -8 -79 16 -415 177 -214 103 -392 189 -394
191 -2 2 25 17 60 33 35 16 210 99 389 185 179 86 332 156 340 156 8 0 186
-82 395 -181z m-877 -509 l397 -189 3 -530 2 -530 -112 54 c-62 29 -243 116
-403 192 l-290 139 -3 527 c-1 290 0 527 3 527 3 0 184 -85 403 -190z m1037
-1997 c24 -141 73 -264 149 -373 l45 -65 -374 -3 c-206 -1 -544 -1 -750 0
l-375 3 39 55 c79 111 125 228 156 393 l5 27 550 0 549 0 6 -37z m783 -613
c30 -28 30 -82 0 -110 -22 -20 -27 -20 -1338 -20 -1311 0 -1316 0 -1338 20
-14 14 -22 33 -22 55 0 22 8 41 22 55 22 20 27 20 1338 20 1311 0 1316 0 1338
-20z"/>
</g>
</svg>
